UBC Stat550
…
\(\hat\beta_\lambda = \argmin_{ \beta} \frac{1}{2n}\sum_i (y_i-x^\top_i \beta)^2 + \frac{\lambda}{2} \Vert \beta \Vert_2^2.\)

Observe:

\(\lambda = 0\) (or \(s = \infty\)) makes \(\hat\beta_\lambda = \hat\beta_{ols}\)

Any \(\lambda > 0\) (or \(s <\infty\)) penalizes larger values of \(\beta\), effectively shrinking them.

\(\lambda\) and \(s\) are known as tuning parameters

Example data

prostate data from [ESL]

# A tibble: 97 × 10
   lcavol lweight   age   lbph   svi   lcp gleason pgg45   lpsa train
    <dbl>   <dbl> <int>  <dbl> <int> <dbl>   <int> <int>  <dbl> <lgl>
 1 -0.580    2.77    50 -1.39      0 -1.39       6     0 -0.431 TRUE 
 2 -0.994    3.32    58 -1.39      0 -1.39       6     0 -0.163 TRUE 
 3 -0.511    2.69    74 -1.39      0 -1.39       7    20 -0.163 TRUE 
 4 -1.20     3.28    58 -1.39      0 -1.39       6     0 -0.163 TRUE 
 5  0.751    3.43    62 -1.39      0 -1.39       6     0  0.372 TRUE 
 6 -1.05     3.23    50 -1.39      0 -1.39       6     0  0.765 TRUE 
 7  0.737    3.47    64  0.615     0 -1.39       6     0  0.765 FALSE
 8  0.693    3.54    58  1.54      0 -1.39       6     0  0.854 TRUE 
 9 -0.777    3.54    47 -1.39      0 -1.39       6     0  1.05  FALSE
10  0.223    3.24    63 -1.39      0 -1.39       6     0  1.05  FALSE
# ℹ 87 more rows
…
